<?xml version="1.0" encoding="UTF-8"?>
<svg version="1.1" viewBox="0 0 156 156" xmlns="http://www.w3.org/2000/svg">
 <defs>
  <linearGradient id="linear-gradient" x1=".769" x2=".16" y1=".083" y2=".859">
   <stop stop-color="#0fd40a" offset="0"/>
   <stop stop-color="#055702" offset="1"/>
  </linearGradient>
 </defs>
 <g transform="translate(-1161 -369)">
  <g id="Percentile_circle_right" transform="translate(23)" data-name="Percentile circle right">
   <path transform="translate(1138 369)" d="M78,0A78,78,0,1,1,0,78,78,78,0,0,1,78,0Z" fill="url(#linear-gradient)" data-name="Path 1498"/>
   <path transform="translate(1152 383)" d="M64,0A64,64,0,1,1,0,64,64,64,0,0,1,64,0Z" fill="#fff" data-name="Path 1499"/>
  </g>
  <g id="_47_" transform="translate(1161 410.26)" aria-label="47%">
   <path d="m60.665 15.953-14.012 20.752h14.012zm-2.125-10.525h14.211v31.277h7.0723v9.2637h-7.0723v9.0312h-12.086v-9.0312h-21.98v-10.957z" style=""/>
   <path d="m87.46 5.4277h37.354v7.2051l-19.324 42.367h-12.451l18.295-40.176h-23.873z" style=""/>
   <path d="m82.364 70.188q-0.55469 0-0.85938 0.48438-0.30469 0.47656-0.30469 1.3672 0 0.89844 0.29688 1.3828 0.30469 0.47656 0.86719 0.47656t0.85938-0.47656q0.29688-0.48438 0.29688-1.3828 0-0.89062-0.30469-1.3672-0.29688-0.48438-0.85156-0.48438zm0-1.3125q1.4531 0 2.2891 0.84375 0.83594 0.84375 0.83594 2.3203 0 1.4766-0.83594 2.3359-0.83594 0.85156-2.2891 0.85156t-2.2969-0.85156q-0.83594-0.85938-0.83594-2.3359 0-1.4688 0.83594-2.3125 0.84375-0.85156 2.2969-0.85156zm-7.1641 6.3516h-1.7266l7.2891-12.102h1.7344zm-1.6016-12.102q1.4531 0 2.2812 0.85156 0.83594 0.84375 0.83594 2.3203 0 1.4766-0.83594 2.3281-0.82812 0.85156-2.2812 0.85156t-2.2891-0.85156q-0.82812-0.85156-0.82812-2.3281 0-1.4766 0.82812-2.3203 0.83594-0.85156 2.2891-0.85156zm0 1.3125q-0.5625 0-0.86719 0.48438-0.30469 0.48438-0.30469 1.375 0 0.89844 0.30469 1.3906 0.30469 0.48438 0.86719 0.48438t0.85938-0.48438q0.30469-0.49219 0.30469-1.3906 0-0.89062-0.30469-1.375-0.30469-0.48438-0.85938-0.48438z" style=""/>
  </g>
 </g>
</svg>
