<?xml version="1.0" encoding="UTF-8"?>
<svg version="1.1" viewBox="0 0 379.25 176.88" xmlns="http://www.w3.org/2000/svg">
 <g transform="translate(-84.735 -242.37)" data-name="Group 151">
  <g transform="translate(84.729 242.37)" data-name="Group 136">
   <path transform="translate(-270.94 -240.27)" d="m461.03 242.81 2.934 2.785 58.051 156.02h-195.11l-55.536-151.97a6.965 6.965 0 0 1 6.544-9.361h175.15z" fill="#b4b4b4" data-name="Path 1541"/>
   <path transform="translate(-264.02 -235.91)" d="m452.56 242.74 2.8 2.709 55.463 151.79h-186.41l-53.06-147.86a6.761 6.761 0 0 1 6.253-9.107h167.34z" data-name="Path 1564"/>
   <path transform="translate(-120.77 -240.27)" d="m302.82 240.27h1.969a11.968 11.968 0 0 1 11.237 7.833l56.609 153.5h-9.784z" fill="#b4b4b4" data-name="Path 1542"/>
   <path transform="translate(-125.04 -235.91)" d="m302.82 240.27h1.969a11.958 11.958 0 0 1 11.237 7.62l56.609 149.35h-9.784z" data-name="Path 1565"/>
   <path transform="translate(56.506 161.34)" d="m0 0h128v15.544h-125.65a2.35 2.35 0 0 1-2.35-2.35z" fill="#9d9d9d" data-name="Rectangle 56"/>
   <path transform="translate(-128.33 -105.86)" d="m312.84 282.74h182.94c6.519 0 11.809-3.476 11.809-7.773 0-4.291-5.29-7.773-11.809-7.773h-182.94z" fill="#757575" data-name="Path 1543"/>
   <g fill="none" stroke="#f2f0ed" stroke-width="4">
    <line transform="translate(97.758 112.87)" x2="24" y2="24" data-name="Line 10"/>
    <line transform="translate(139.76 112.87)" x2="24" y2="24" data-name="Line 13"/>
    <line transform="translate(118.76 112.87)" x1="24" y2="24" data-name="Line 11"/>
    <line transform="translate(160.76 112.87)" x1="24" y2="24" data-name="Line 12"/>
   </g>
  </g>
 </g>
 <g transform="translate(-944.38 63.835)" data-name="Group 164">
  <path transform="translate(3559 2777)" d="m-2318.7-2747.9c-0.171-0.278 23.664-16.1 23.531-16.1 0.132-0.265-23.4-11.174-23.531-11.307 0 0.132 11.108-14.15 11.241-14.2a28.888 28.888 0 0 1 21.426-9.474 28.961 28.961 0 0 1 28.961 28.961 28.833 28.833 0 0 1-5.85 17.456h0.048l-0.237 0.248a29.146 29.146 0 0 1-4.227 4.416l-40.324 42.13 0.206-17.832 12.5-13.29z" data-name="Heart Rght"/>
  <path transform="translate(3570,2777)" d="m-2357.1-2747.4a28.905 28.905 0 0 1-10.882-22.627 28.961 28.961 0 0 1 28.962-28.961 28.886 28.886 0 0 1 21.423 9.473c-0.132 0.578-10.976 14.067-11.241 14.331l22.944 11.042s-23.178 16.1-22.944 16.235c0 0 22.994 11.123 22.944 11.007s-11.91 13.29-11.91 13.29c-0.017-0.05 0.01 17.8 0 17.832z" fill="#ed1f45" data-name="Heart Left"/>
 </g>
</svg>
