<svg xmlns="http://www.w3.org/2000/svg" width="257.378" height="120.037" viewBox="0 0 257.378 120.037">
  <g id="Group_230" data-name="Group 230" transform="translate(-353 -328.633)">
    <g id="Group_229" data-name="Group 229">
      <g id="AA_Solutions_Laptop" data-name="AA Solutions Laptop" transform="translate(353 328.633)">
        <path id="Path_1541" data-name="Path 1541" d="M400.591,240.274,441.33,349.761H308.921L271.233,246.627a4.727,4.727,0,0,1,4.441-6.353Z" transform="translate(-270.94 -240.274)" fill="#b4b4b4"/>
        <path id="Path_1542" data-name="Path 1542" d="M302.819,240.274h1.336a8.122,8.122,0,0,1,7.626,5.315L350.2,349.761h-6.64Z" transform="translate(-173.168 -240.274)" fill="#9e9e9e"/>
        <path id="Rectangle_56" data-name="Rectangle 56" d="M0,0H132.043a0,0,0,0,1,0,0V10.549a0,0,0,0,1,0,0H2.35A2.35,2.35,0,0,1,0,8.2V0A0,0,0,0,1,0,0Z" transform="translate(38.347 109.488)" fill="#9d9d9d"/>
        <path id="Path_1543" data-name="Path 1543" d="M312.836,277.745H394.55a5.274,5.274,0,0,0,5.275-5.275h0a5.277,5.277,0,0,0-5.275-5.275H312.836Z" transform="translate(-142.447 -157.708)" fill="#757575"/>
        <path id="Path_1544" data-name="Path 1544" d="M312.349,261.546c2.505,7.565-.516,15.373-6.751,17.435s-13.315-2.4-15.82-9.96.516-15.373,6.751-17.435S309.844,253.981,312.349,261.546Z" transform="translate(-215.868 -207.126)" fill="#ecf2f5"/>
      </g>
    </g>
  </g>
</svg>
